[2023-03-17T11:12:20.820+0000] {taskinstance.py:1084} INFO - Dependencies all met for dep_context=non-requeueable deps ti=<TaskInstance: titanic_pivot.download_titanic_dataset scheduled__2022-08-01T15:00:00+00:00 [queued]>
[2023-03-17T11:12:20.830+0000] {taskinstance.py:1084} INFO - Dependencies all met for dep_context=requeueable deps ti=<TaskInstance: titanic_pivot.download_titanic_dataset scheduled__2022-08-01T15:00:00+00:00 [queued]>
[2023-03-17T11:12:20.831+0000] {taskinstance.py:1282} INFO - 
--------------------------------------------------------------------------------
[2023-03-17T11:12:20.831+0000] {taskinstance.py:1283} INFO - Starting attempt 1 of 2
[2023-03-17T11:12:20.832+0000] {taskinstance.py:1284} INFO - 
--------------------------------------------------------------------------------
[2023-03-17T11:12:20.853+0000] {taskinstance.py:1303} INFO - Executing <Task(PythonOperator): download_titanic_dataset> on 2022-08-01 15:00:00+00:00
[2023-03-17T11:12:20.861+0000] {standard_task_runner.py:55} INFO - Started process 3026 to run task
[2023-03-17T11:12:20.865+0000] {standard_task_runner.py:82} INFO - Running: ['***', 'tasks', 'run', 'titanic_pivot', 'download_titanic_dataset', 'scheduled__2022-08-01T15:00:00+00:00', '--job-id', '177', '--raw', '--subdir', 'DAGS_FOLDER/first_dag.py', '--cfg-path', '/tmp/tmpn2qyyy4w']
[2023-03-17T11:12:20.866+0000] {standard_task_runner.py:83} INFO - Job 177: Subtask download_titanic_dataset
[2023-03-17T11:12:20.941+0000] {task_command.py:388} INFO - Running <TaskInstance: titanic_pivot.download_titanic_dataset scheduled__2022-08-01T15:00:00+00:00 [running]> on host 5a45e444f389
[2023-03-17T11:12:21.015+0000] {taskinstance.py:1511} INFO - Exporting the following env vars:
AIRFLOW_CTX_DAG_OWNER=***
AIRFLOW_CTX_DAG_ID=titanic_pivot
AIRFLOW_CTX_TASK_ID=download_titanic_dataset
AIRFLOW_CTX_EXECUTION_DATE=2022-08-01T15:00:00+00:00
AIRFLOW_CTX_TRY_NUMBER=1
AIRFLOW_CTX_DAG_RUN_ID=scheduled__2022-08-01T15:00:00+00:00
[2023-03-17T11:12:22.350+0000] {python.py:177} INFO - Done. Returned value was: None
[2023-03-17T11:12:22.359+0000] {taskinstance.py:1326} INFO - Marking task as SUCCESS. dag_id=titanic_pivot, task_id=download_titanic_dataset, execution_date=20220801T150000, start_date=20230317T111220, end_date=20230317T111222
[2023-03-17T11:12:22.402+0000] {local_task_job.py:212} INFO - Task exited with return code 0
[2023-03-17T11:12:22.420+0000] {taskinstance.py:2585} INFO - 1 downstream tasks scheduled from follow-on schedule check
