[2023-03-17T21:23:46.623+0000] {taskinstance.py:1084} INFO - Dependencies all met for dep_context=non-requeueable deps ti=<TaskInstance: car_price_prediction.pipeline scheduled__2022-07-11T15:00:00+00:00 [queued]>
[2023-03-17T21:23:46.636+0000] {taskinstance.py:1084} INFO - Dependencies all met for dep_context=requeueable deps ti=<TaskInstance: car_price_prediction.pipeline scheduled__2022-07-11T15:00:00+00:00 [queued]>
[2023-03-17T21:23:46.637+0000] {taskinstance.py:1282} INFO - 
--------------------------------------------------------------------------------
[2023-03-17T21:23:46.637+0000] {taskinstance.py:1283} INFO - Starting attempt 1 of 2
[2023-03-17T21:23:46.638+0000] {taskinstance.py:1284} INFO - 
--------------------------------------------------------------------------------
[2023-03-17T21:23:46.656+0000] {taskinstance.py:1303} INFO - Executing <Task(PythonOperator): pipeline> on 2022-07-11 15:00:00+00:00
[2023-03-17T21:23:46.663+0000] {standard_task_runner.py:55} INFO - Started process 1785 to run task
[2023-03-17T21:23:46.668+0000] {standard_task_runner.py:82} INFO - Running: ['***', 'tasks', 'run', 'car_price_prediction', 'pipeline', 'scheduled__2022-07-11T15:00:00+00:00', '--job-id', '906', '--raw', '--subdir', 'DAGS_FOLDER/hw_dag.py', '--cfg-path', '/tmp/tmppvvjzt6h']
[2023-03-17T21:23:46.669+0000] {standard_task_runner.py:83} INFO - Job 906: Subtask pipeline
[2023-03-17T21:23:46.770+0000] {task_command.py:388} INFO - Running <TaskInstance: car_price_prediction.pipeline scheduled__2022-07-11T15:00:00+00:00 [running]> on host 5a45e444f389
[2023-03-17T21:23:46.872+0000] {taskinstance.py:1511} INFO - Exporting the following env vars:
AIRFLOW_CTX_DAG_OWNER=***
AIRFLOW_CTX_DAG_ID=car_price_prediction
AIRFLOW_CTX_TASK_ID=pipeline
AIRFLOW_CTX_EXECUTION_DATE=2022-07-11T15:00:00+00:00
AIRFLOW_CTX_TRY_NUMBER=1
AIRFLOW_CTX_DAG_RUN_ID=scheduled__2022-07-11T15:00:00+00:00
[2023-03-17T21:23:53.171+0000] {pipeline.py:116} INFO - model: LogisticRegression, acc_mean: 0.7591, acc_std: 0.0075
[2023-03-17T21:24:18.977+0000] {pipeline.py:116} INFO - model: RandomForestClassifier, acc_mean: 0.7770, acc_std: 0.0045
[2023-03-17T21:24:30.384+0000] {pipeline.py:116} INFO - model: SVC, acc_mean: 0.7871, acc_std: 0.0042
[2023-03-17T21:24:30.385+0000] {pipeline.py:121} INFO - best model: SVC, accuracy: 0.7871
[2023-03-17T21:24:34.067+0000] {taskinstance.py:1775} ERROR - Task failed with exception
Traceback (most recent call last):
  File "/home/airflow/.local/lib/python3.7/site-packages/airflow/operators/python.py", line 175, in execute
    return_value = self.execute_callable()
  File "/home/airflow/.local/lib/python3.7/site-packages/airflow/operators/python.py", line 192, in execute_callable
    return self.python_callable(*self.op_args, **self.op_kwargs)
  File "/home/airflow/airflow_hw/modules/pipeline.py", line 126, in pipeline
    with open(model_filename, 'wb') as file:
PermissionError: [Errno 13] Permission denied: '/home/airflow/airflow_hw/data/models/cars_pipe_202303172124.pkl'
[2023-03-17T21:24:34.076+0000] {taskinstance.py:1326} INFO - Marking task as UP_FOR_RETRY. dag_id=car_price_prediction, task_id=pipeline, execution_date=20220711T150000, start_date=20230317T212346, end_date=20230317T212434
[2023-03-17T21:24:34.089+0000] {standard_task_runner.py:105} ERROR - Failed to execute job 906 for task pipeline ([Errno 13] Permission denied: '/home/airflow/airflow_hw/data/models/cars_pipe_202303172124.pkl'; 1785)
[2023-03-17T21:24:34.123+0000] {local_task_job.py:212} INFO - Task exited with return code 1
[2023-03-17T21:24:34.139+0000] {taskinstance.py:2585} INFO - 0 downstream tasks scheduled from follow-on schedule check
