[2023-03-19T23:41:05.573+0000] {taskinstance.py:1084} INFO - Dependencies all met for dep_context=non-requeueable deps ti=<TaskInstance: car_price_prediction.predict scheduled__2023-02-01T15:00:00+00:00 [queued]>
[2023-03-19T23:41:05.597+0000] {taskinstance.py:1084} INFO - Dependencies all met for dep_context=requeueable deps ti=<TaskInstance: car_price_prediction.predict scheduled__2023-02-01T15:00:00+00:00 [queued]>
[2023-03-19T23:41:05.597+0000] {taskinstance.py:1282} INFO - 
--------------------------------------------------------------------------------
[2023-03-19T23:41:05.598+0000] {taskinstance.py:1283} INFO - Starting attempt 1 of 2
[2023-03-19T23:41:05.599+0000] {taskinstance.py:1284} INFO - 
--------------------------------------------------------------------------------
[2023-03-19T23:41:05.630+0000] {taskinstance.py:1303} INFO - Executing <Task(PythonOperator): predict> on 2023-02-01 15:00:00+00:00
[2023-03-19T23:41:05.640+0000] {standard_task_runner.py:55} INFO - Started process 3980 to run task
[2023-03-19T23:41:05.647+0000] {standard_task_runner.py:82} INFO - Running: ['***', 'tasks', 'run', 'car_price_prediction', 'predict', 'scheduled__2023-02-01T15:00:00+00:00', '--job-id', '1746', '--raw', '--subdir', 'DAGS_FOLDER/hw_dag.py', '--cfg-path', '/tmp/tmp_8q4rgj_']
[2023-03-19T23:41:05.649+0000] {standard_task_runner.py:83} INFO - Job 1746: Subtask predict
[2023-03-19T23:41:05.798+0000] {task_command.py:388} INFO - Running <TaskInstance: car_price_prediction.predict scheduled__2023-02-01T15:00:00+00:00 [running]> on host c71b34c643f7
[2023-03-19T23:41:05.954+0000] {taskinstance.py:1511} INFO - Exporting the following env vars:
AIRFLOW_CTX_DAG_OWNER=***
AIRFLOW_CTX_DAG_ID=car_price_prediction
AIRFLOW_CTX_TASK_ID=predict
AIRFLOW_CTX_EXECUTION_DATE=2023-02-01T15:00:00+00:00
AIRFLOW_CTX_TRY_NUMBER=1
AIRFLOW_CTX_DAG_RUN_ID=scheduled__2023-02-01T15:00:00+00:00
[2023-03-19T23:41:05.960+0000] {taskinstance.py:1775} ERROR - Task failed with exception
Traceback (most recent call last):
  File "/home/airflow/.local/lib/python3.7/site-packages/airflow/operators/python.py", line 175, in execute
    return_value = self.execute_callable()
  File "/home/airflow/.local/lib/python3.7/site-packages/airflow/operators/python.py", line 192, in execute_callable
    return self.python_callable(*self.op_args, **self.op_kwargs)
TypeError: predict() missing 1 required positional argument: 'data'
[2023-03-19T23:41:05.978+0000] {taskinstance.py:1326} INFO - Marking task as UP_FOR_RETRY. dag_id=car_price_prediction, task_id=predict, execution_date=20230201T150000, start_date=20230319T234105, end_date=20230319T234105
[2023-03-19T23:41:06.003+0000] {standard_task_runner.py:105} ERROR - Failed to execute job 1746 for task predict (predict() missing 1 required positional argument: 'data'; 3980)
[2023-03-19T23:41:06.019+0000] {local_task_job.py:212} INFO - Task exited with return code 1
[2023-03-19T23:41:06.056+0000] {taskinstance.py:2585} INFO - 0 downstream tasks scheduled from follow-on schedule check
