[2023-03-17T11:13:35.841+0000] {taskinstance.py:1084} INFO - Dependencies all met for dep_context=non-requeueable deps ti=<TaskInstance: titanic_pivot.first_task scheduled__2022-11-14T15:00:00+00:00 [queued]>
[2023-03-17T11:13:35.851+0000] {taskinstance.py:1084} INFO - Dependencies all met for dep_context=requeueable deps ti=<TaskInstance: titanic_pivot.first_task scheduled__2022-11-14T15:00:00+00:00 [queued]>
[2023-03-17T11:13:35.851+0000] {taskinstance.py:1282} INFO - 
--------------------------------------------------------------------------------
[2023-03-17T11:13:35.852+0000] {taskinstance.py:1283} INFO - Starting attempt 1 of 2
[2023-03-17T11:13:35.852+0000] {taskinstance.py:1284} INFO - 
--------------------------------------------------------------------------------
[2023-03-17T11:13:35.867+0000] {taskinstance.py:1303} INFO - Executing <Task(BashOperator): first_task> on 2022-11-14 15:00:00+00:00
[2023-03-17T11:13:35.874+0000] {standard_task_runner.py:55} INFO - Started process 4095 to run task
[2023-03-17T11:13:35.876+0000] {standard_task_runner.py:82} INFO - Running: ['***', 'tasks', 'run', 'titanic_pivot', 'first_task', 'scheduled__2022-11-14T15:00:00+00:00', '--job-id', '478', '--raw', '--subdir', 'DAGS_FOLDER/first_dag.py', '--cfg-path', '/tmp/tmp0e1ehckt']
[2023-03-17T11:13:35.877+0000] {standard_task_runner.py:83} INFO - Job 478: Subtask first_task
[2023-03-17T11:13:35.948+0000] {task_command.py:388} INFO - Running <TaskInstance: titanic_pivot.first_task scheduled__2022-11-14T15:00:00+00:00 [running]> on host 5a45e444f389
[2023-03-17T11:13:36.014+0000] {taskinstance.py:1511} INFO - Exporting the following env vars:
AIRFLOW_CTX_DAG_OWNER=***
AIRFLOW_CTX_DAG_ID=titanic_pivot
AIRFLOW_CTX_TASK_ID=first_task
AIRFLOW_CTX_EXECUTION_DATE=2022-11-14T15:00:00+00:00
AIRFLOW_CTX_TRY_NUMBER=1
AIRFLOW_CTX_DAG_RUN_ID=scheduled__2022-11-14T15:00:00+00:00
[2023-03-17T11:13:36.018+0000] {subprocess.py:63} INFO - Tmp dir root location: 
 /tmp
[2023-03-17T11:13:36.019+0000] {subprocess.py:75} INFO - Running command: ['/bin/bash', '-c', 'echo "Here we start!"']
[2023-03-17T11:13:36.036+0000] {subprocess.py:86} INFO - Output:
[2023-03-17T11:13:36.038+0000] {subprocess.py:93} INFO - Here we start!
[2023-03-17T11:13:36.039+0000] {subprocess.py:97} INFO - Command exited with return code 0
[2023-03-17T11:13:36.072+0000] {taskinstance.py:1326} INFO - Marking task as SUCCESS. dag_id=titanic_pivot, task_id=first_task, execution_date=20221114T150000, start_date=20230317T111335, end_date=20230317T111336
[2023-03-17T11:13:36.130+0000] {local_task_job.py:212} INFO - Task exited with return code 0
[2023-03-17T11:13:36.215+0000] {taskinstance.py:2585} INFO - 1 downstream tasks scheduled from follow-on schedule check
