[2023-03-19T23:51:49.085+0000] {taskinstance.py:1084} INFO - Dependencies all met for dep_context=non-requeueable deps ti=<TaskInstance: car_price_prediction.pipeline scheduled__2023-02-24T15:00:00+00:00 [queued]>
[2023-03-19T23:51:49.095+0000] {taskinstance.py:1084} INFO - Dependencies all met for dep_context=requeueable deps ti=<TaskInstance: car_price_prediction.pipeline scheduled__2023-02-24T15:00:00+00:00 [queued]>
[2023-03-19T23:51:49.095+0000] {taskinstance.py:1282} INFO - 
--------------------------------------------------------------------------------
[2023-03-19T23:51:49.095+0000] {taskinstance.py:1283} INFO - Starting attempt 2 of 2
[2023-03-19T23:51:49.096+0000] {taskinstance.py:1284} INFO - 
--------------------------------------------------------------------------------
[2023-03-19T23:51:49.109+0000] {taskinstance.py:1303} INFO - Executing <Task(PythonOperator): pipeline> on 2023-02-24 15:00:00+00:00
[2023-03-19T23:51:49.115+0000] {standard_task_runner.py:55} INFO - Started process 808 to run task
[2023-03-19T23:51:49.120+0000] {standard_task_runner.py:82} INFO - Running: ['***', 'tasks', 'run', 'car_price_prediction', 'pipeline', 'scheduled__2023-02-24T15:00:00+00:00', '--job-id', '1888', '--raw', '--subdir', 'DAGS_FOLDER/hw_dag.py', '--cfg-path', '/tmp/tmpz2ppc6gr']
[2023-03-19T23:51:49.121+0000] {standard_task_runner.py:83} INFO - Job 1888: Subtask pipeline
[2023-03-19T23:51:49.186+0000] {task_command.py:388} INFO - Running <TaskInstance: car_price_prediction.pipeline scheduled__2023-02-24T15:00:00+00:00 [running]> on host c71b34c643f7
[2023-03-19T23:51:49.253+0000] {taskinstance.py:1511} INFO - Exporting the following env vars:
AIRFLOW_CTX_DAG_OWNER=***
AIRFLOW_CTX_DAG_ID=car_price_prediction
AIRFLOW_CTX_TASK_ID=pipeline
AIRFLOW_CTX_EXECUTION_DATE=2023-02-24T15:00:00+00:00
AIRFLOW_CTX_TRY_NUMBER=2
AIRFLOW_CTX_DAG_RUN_ID=scheduled__2023-02-24T15:00:00+00:00
[2023-03-19T23:51:50.644+0000] {pipeline.py:117} INFO - model: LogisticRegression, acc_mean: 0.7591, acc_std: 0.0075
[2023-03-19T23:52:09.411+0000] {pipeline.py:117} INFO - model: RandomForestClassifier, acc_mean: 0.7781, acc_std: 0.0041
[2023-03-19T23:52:13.774+0000] {local_task_job.py:212} INFO - Task exited with return code Negsignal.SIGKILL
[2023-03-19T23:52:14.059+0000] {taskinstance.py:2585} INFO - 0 downstream tasks scheduled from follow-on schedule check
