[2023-03-19T23:47:04.078+0000] {taskinstance.py:1084} INFO - Dependencies all met for dep_context=non-requeueable deps ti=<TaskInstance: car_price_prediction.pipeline scheduled__2023-02-06T15:00:00+00:00 [queued]>
[2023-03-19T23:47:04.097+0000] {taskinstance.py:1084} INFO - Dependencies all met for dep_context=requeueable deps ti=<TaskInstance: car_price_prediction.pipeline scheduled__2023-02-06T15:00:00+00:00 [queued]>
[2023-03-19T23:47:04.098+0000] {taskinstance.py:1282} INFO - 
--------------------------------------------------------------------------------
[2023-03-19T23:47:04.099+0000] {taskinstance.py:1283} INFO - Starting attempt 1 of 2
[2023-03-19T23:47:04.099+0000] {taskinstance.py:1284} INFO - 
--------------------------------------------------------------------------------
[2023-03-19T23:47:04.131+0000] {taskinstance.py:1303} INFO - Executing <Task(PythonOperator): pipeline> on 2023-02-06 15:00:00+00:00
[2023-03-19T23:47:04.143+0000] {standard_task_runner.py:55} INFO - Started process 257 to run task
[2023-03-19T23:47:04.151+0000] {standard_task_runner.py:82} INFO - Running: ['***', 'tasks', 'run', 'car_price_prediction', 'pipeline', 'scheduled__2023-02-06T15:00:00+00:00', '--job-id', '1773', '--raw', '--subdir', 'DAGS_FOLDER/hw_dag.py', '--cfg-path', '/tmp/tmpua7g3rlb']
[2023-03-19T23:47:04.152+0000] {standard_task_runner.py:83} INFO - Job 1773: Subtask pipeline
[2023-03-19T23:47:04.293+0000] {task_command.py:388} INFO - Running <TaskInstance: car_price_prediction.pipeline scheduled__2023-02-06T15:00:00+00:00 [running]> on host c71b34c643f7
[2023-03-19T23:47:04.426+0000] {taskinstance.py:1511} INFO - Exporting the following env vars:
AIRFLOW_CTX_DAG_OWNER=***
AIRFLOW_CTX_DAG_ID=car_price_prediction
AIRFLOW_CTX_TASK_ID=pipeline
AIRFLOW_CTX_EXECUTION_DATE=2023-02-06T15:00:00+00:00
AIRFLOW_CTX_TRY_NUMBER=1
AIRFLOW_CTX_DAG_RUN_ID=scheduled__2023-02-06T15:00:00+00:00
[2023-03-19T23:47:07.218+0000] {pipeline.py:117} INFO - model: LogisticRegression, acc_mean: 0.7591, acc_std: 0.0075
[2023-03-19T23:47:29.434+0000] {pipeline.py:117} INFO - model: RandomForestClassifier, acc_mean: 0.7781, acc_std: 0.0041
[2023-03-19T23:47:44.067+0000] {pipeline.py:117} INFO - model: SVC, acc_mean: 0.7871, acc_std: 0.0042
[2023-03-19T23:47:44.068+0000] {pipeline.py:122} INFO - best model: SVC, accuracy: 0.7871
[2023-03-19T23:47:50.159+0000] {taskinstance.py:1775} ERROR - Task failed with exception
Traceback (most recent call last):
  File "/home/airflow/.local/lib/python3.7/site-packages/airflow/operators/python.py", line 175, in execute
    return_value = self.execute_callable()
  File "/home/airflow/.local/lib/python3.7/site-packages/airflow/operators/python.py", line 192, in execute_callable
    return self.python_callable(*self.op_args, **self.op_kwargs)
  File "/opt/airflow/modules/pipeline.py", line 127, in pipeline
    with open(model_filename, 'wb') as file:
PermissionError: [Errno 13] Permission denied: '/opt/airflow//data/models/cars_pipe_202303192347.pkl'
[2023-03-19T23:47:50.179+0000] {taskinstance.py:1326} INFO - Marking task as UP_FOR_RETRY. dag_id=car_price_prediction, task_id=pipeline, execution_date=20230206T150000, start_date=20230319T234704, end_date=20230319T234750
[2023-03-19T23:47:50.200+0000] {standard_task_runner.py:105} ERROR - Failed to execute job 1773 for task pipeline ([Errno 13] Permission denied: '/opt/airflow//data/models/cars_pipe_202303192347.pkl'; 257)
[2023-03-19T23:47:50.260+0000] {local_task_job.py:212} INFO - Task exited with return code 1
[2023-03-19T23:47:50.470+0000] {taskinstance.py:2585} INFO - 0 downstream tasks scheduled from follow-on schedule check
