[2023-03-17T11:11:47.237+0000] {taskinstance.py:1084} INFO - Dependencies all met for dep_context=non-requeueable deps ti=<TaskInstance: titanic_pivot.pivot_dataset scheduled__2022-06-20T15:00:00+00:00 [queued]>
[2023-03-17T11:11:47.253+0000] {taskinstance.py:1084} INFO - Dependencies all met for dep_context=requeueable deps ti=<TaskInstance: titanic_pivot.pivot_dataset scheduled__2022-06-20T15:00:00+00:00 [queued]>
[2023-03-17T11:11:47.253+0000] {taskinstance.py:1282} INFO - 
--------------------------------------------------------------------------------
[2023-03-17T11:11:47.254+0000] {taskinstance.py:1283} INFO - Starting attempt 1 of 2
[2023-03-17T11:11:47.255+0000] {taskinstance.py:1284} INFO - 
--------------------------------------------------------------------------------
[2023-03-17T11:11:47.276+0000] {taskinstance.py:1303} INFO - Executing <Task(PythonOperator): pivot_dataset> on 2022-06-20 15:00:00+00:00
[2023-03-17T11:11:47.286+0000] {standard_task_runner.py:55} INFO - Started process 2582 to run task
[2023-03-17T11:11:47.289+0000] {standard_task_runner.py:82} INFO - Running: ['***', 'tasks', 'run', 'titanic_pivot', 'pivot_dataset', 'scheduled__2022-06-20T15:00:00+00:00', '--job-id', '56', '--raw', '--subdir', 'DAGS_FOLDER/first_dag.py', '--cfg-path', '/tmp/tmpe29b9d0d']
[2023-03-17T11:11:47.290+0000] {standard_task_runner.py:83} INFO - Job 56: Subtask pivot_dataset
[2023-03-17T11:11:47.367+0000] {task_command.py:388} INFO - Running <TaskInstance: titanic_pivot.pivot_dataset scheduled__2022-06-20T15:00:00+00:00 [running]> on host 5a45e444f389
[2023-03-17T11:11:47.454+0000] {taskinstance.py:1511} INFO - Exporting the following env vars:
AIRFLOW_CTX_DAG_OWNER=***
AIRFLOW_CTX_DAG_ID=titanic_pivot
AIRFLOW_CTX_TASK_ID=pivot_dataset
AIRFLOW_CTX_EXECUTION_DATE=2022-06-20T15:00:00+00:00
AIRFLOW_CTX_TRY_NUMBER=1
AIRFLOW_CTX_DAG_RUN_ID=scheduled__2022-06-20T15:00:00+00:00
[2023-03-17T11:11:47.481+0000] {python.py:177} INFO - Done. Returned value was: None
[2023-03-17T11:11:47.493+0000] {taskinstance.py:1326} INFO - Marking task as SUCCESS. dag_id=titanic_pivot, task_id=pivot_dataset, execution_date=20220620T150000, start_date=20230317T111147, end_date=20230317T111147
[2023-03-17T11:11:47.542+0000] {local_task_job.py:212} INFO - Task exited with return code 0
[2023-03-17T11:11:47.563+0000] {taskinstance.py:2585} INFO - 0 downstream tasks scheduled from follow-on schedule check
