[2023-03-17T19:35:04.956+0000] {taskinstance.py:1084} INFO - Dependencies all met for dep_context=non-requeueable deps ti=<TaskInstance: titanic_pivot.download_titanic_dataset scheduled__2023-03-16T15:00:00+00:00 [queued]>
[2023-03-17T19:35:04.962+0000] {taskinstance.py:1084} INFO - Dependencies all met for dep_context=requeueable deps ti=<TaskInstance: titanic_pivot.download_titanic_dataset scheduled__2023-03-16T15:00:00+00:00 [queued]>
[2023-03-17T19:35:04.963+0000] {taskinstance.py:1282} INFO - 
--------------------------------------------------------------------------------
[2023-03-17T19:35:04.963+0000] {taskinstance.py:1283} INFO - Starting attempt 1 of 2
[2023-03-17T19:35:04.964+0000] {taskinstance.py:1284} INFO - 
--------------------------------------------------------------------------------
[2023-03-17T19:35:04.973+0000] {taskinstance.py:1303} INFO - Executing <Task(PythonOperator): download_titanic_dataset> on 2023-03-16 15:00:00+00:00
[2023-03-17T19:35:04.978+0000] {standard_task_runner.py:55} INFO - Started process 73 to run task
[2023-03-17T19:35:04.980+0000] {standard_task_runner.py:82} INFO - Running: ['***', 'tasks', 'run', 'titanic_pivot', 'download_titanic_dataset', 'scheduled__2023-03-16T15:00:00+00:00', '--job-id', '856', '--raw', '--subdir', 'DAGS_FOLDER/first_dag.py', '--cfg-path', '/tmp/tmphgy7barl']
[2023-03-17T19:35:04.981+0000] {standard_task_runner.py:83} INFO - Job 856: Subtask download_titanic_dataset
[2023-03-17T19:35:05.027+0000] {task_command.py:388} INFO - Running <TaskInstance: titanic_pivot.download_titanic_dataset scheduled__2023-03-16T15:00:00+00:00 [running]> on host 5a45e444f389
[2023-03-17T19:35:05.075+0000] {taskinstance.py:1511} INFO - Exporting the following env vars:
AIRFLOW_CTX_DAG_OWNER=***
AIRFLOW_CTX_DAG_ID=titanic_pivot
AIRFLOW_CTX_TASK_ID=download_titanic_dataset
AIRFLOW_CTX_EXECUTION_DATE=2023-03-16T15:00:00+00:00
AIRFLOW_CTX_TRY_NUMBER=1
AIRFLOW_CTX_DAG_RUN_ID=scheduled__2023-03-16T15:00:00+00:00
[2023-03-17T19:35:06.536+0000] {python.py:177} INFO - Done. Returned value was: None
[2023-03-17T19:35:06.543+0000] {taskinstance.py:1326} INFO - Marking task as SUCCESS. dag_id=titanic_pivot, task_id=download_titanic_dataset, execution_date=20230316T150000, start_date=20230317T193504, end_date=20230317T193506
[2023-03-17T19:35:06.562+0000] {local_task_job.py:212} INFO - Task exited with return code 0
[2023-03-17T19:35:06.577+0000] {taskinstance.py:2585} INFO - 1 downstream tasks scheduled from follow-on schedule check
