[2023-03-19T23:15:20.004+0000] {taskinstance.py:1084} INFO - Dependencies all met for dep_context=non-requeueable deps ti=<TaskInstance: car_price_prediction.predict scheduled__2022-09-16T15:00:00+00:00 [queued]>
[2023-03-19T23:15:20.023+0000] {taskinstance.py:1084} INFO - Dependencies all met for dep_context=requeueable deps ti=<TaskInstance: car_price_prediction.predict scheduled__2022-09-16T15:00:00+00:00 [queued]>
[2023-03-19T23:15:20.024+0000] {taskinstance.py:1282} INFO - 
--------------------------------------------------------------------------------
[2023-03-19T23:15:20.024+0000] {taskinstance.py:1283} INFO - Starting attempt 1 of 2
[2023-03-19T23:15:20.025+0000] {taskinstance.py:1284} INFO - 
--------------------------------------------------------------------------------
[2023-03-19T23:15:20.052+0000] {taskinstance.py:1303} INFO - Executing <Task(PythonOperator): predict> on 2022-09-16 15:00:00+00:00
[2023-03-19T23:15:20.062+0000] {standard_task_runner.py:55} INFO - Started process 1136 to run task
[2023-03-19T23:15:20.068+0000] {standard_task_runner.py:82} INFO - Running: ['***', 'tasks', 'run', 'car_price_prediction', 'predict', 'scheduled__2022-09-16T15:00:00+00:00', '--job-id', '1208', '--raw', '--subdir', 'DAGS_FOLDER/hw_dag.py', '--cfg-path', '/tmp/tmpgh1nc9p7']
[2023-03-19T23:15:20.069+0000] {standard_task_runner.py:83} INFO - Job 1208: Subtask predict
[2023-03-19T23:15:20.177+0000] {task_command.py:388} INFO - Running <TaskInstance: car_price_prediction.predict scheduled__2022-09-16T15:00:00+00:00 [running]> on host c71b34c643f7
[2023-03-19T23:15:20.303+0000] {taskinstance.py:1511} INFO - Exporting the following env vars:
AIRFLOW_CTX_DAG_OWNER=***
AIRFLOW_CTX_DAG_ID=car_price_prediction
AIRFLOW_CTX_TASK_ID=predict
AIRFLOW_CTX_EXECUTION_DATE=2022-09-16T15:00:00+00:00
AIRFLOW_CTX_TRY_NUMBER=1
AIRFLOW_CTX_DAG_RUN_ID=scheduled__2022-09-16T15:00:00+00:00
[2023-03-19T23:15:20.308+0000] {taskinstance.py:1775} ERROR - Task failed with exception
Traceback (most recent call last):
  File "/home/airflow/.local/lib/python3.7/site-packages/airflow/operators/python.py", line 175, in execute
    return_value = self.execute_callable()
  File "/home/airflow/.local/lib/python3.7/site-packages/airflow/operators/python.py", line 192, in execute_callable
    return self.python_callable(*self.op_args, **self.op_kwargs)
TypeError: predict() missing 1 required positional argument: 'data'
[2023-03-19T23:15:20.322+0000] {taskinstance.py:1326} INFO - Marking task as UP_FOR_RETRY. dag_id=car_price_prediction, task_id=predict, execution_date=20220916T150000, start_date=20230319T231520, end_date=20230319T231520
[2023-03-19T23:15:20.343+0000] {standard_task_runner.py:105} ERROR - Failed to execute job 1208 for task predict (predict() missing 1 required positional argument: 'data'; 1136)
[2023-03-19T23:15:20.360+0000] {local_task_job.py:212} INFO - Task exited with return code 1
[2023-03-19T23:15:20.519+0000] {taskinstance.py:2585} INFO - 0 downstream tasks scheduled from follow-on schedule check
