[2023-03-19T23:18:08.245+0000] {taskinstance.py:1084} INFO - Dependencies all met for dep_context=non-requeueable deps ti=<TaskInstance: car_price_prediction.pipeline scheduled__2022-10-04T15:00:00+00:00 [queued]>
[2023-03-19T23:18:08.277+0000] {taskinstance.py:1084} INFO - Dependencies all met for dep_context=requeueable deps ti=<TaskInstance: car_price_prediction.pipeline scheduled__2022-10-04T15:00:00+00:00 [queued]>
[2023-03-19T23:18:08.279+0000] {taskinstance.py:1282} INFO - 
--------------------------------------------------------------------------------
[2023-03-19T23:18:08.280+0000] {taskinstance.py:1283} INFO - Starting attempt 2 of 2
[2023-03-19T23:18:08.281+0000] {taskinstance.py:1284} INFO - 
--------------------------------------------------------------------------------
[2023-03-19T23:18:08.333+0000] {taskinstance.py:1303} INFO - Executing <Task(PythonOperator): pipeline> on 2022-10-04 15:00:00+00:00
[2023-03-19T23:18:08.348+0000] {standard_task_runner.py:55} INFO - Started process 1579 to run task
[2023-03-19T23:18:08.355+0000] {standard_task_runner.py:82} INFO - Running: ['***', 'tasks', 'run', 'car_price_prediction', 'pipeline', 'scheduled__2022-10-04T15:00:00+00:00', '--job-id', '1315', '--raw', '--subdir', 'DAGS_FOLDER/hw_dag.py', '--cfg-path', '/tmp/tmpiokhs6bs']
[2023-03-19T23:18:08.357+0000] {standard_task_runner.py:83} INFO - Job 1315: Subtask pipeline
[2023-03-19T23:18:08.541+0000] {task_command.py:388} INFO - Running <TaskInstance: car_price_prediction.pipeline scheduled__2022-10-04T15:00:00+00:00 [running]> on host c71b34c643f7
[2023-03-19T23:18:08.690+0000] {taskinstance.py:1511} INFO - Exporting the following env vars:
AIRFLOW_CTX_DAG_OWNER=***
AIRFLOW_CTX_DAG_ID=car_price_prediction
AIRFLOW_CTX_TASK_ID=pipeline
AIRFLOW_CTX_EXECUTION_DATE=2022-10-04T15:00:00+00:00
AIRFLOW_CTX_TRY_NUMBER=2
AIRFLOW_CTX_DAG_RUN_ID=scheduled__2022-10-04T15:00:00+00:00
[2023-03-19T23:18:11.532+0000] {pipeline.py:117} INFO - model: LogisticRegression, acc_mean: 0.7591, acc_std: 0.0075
[2023-03-19T23:18:51.135+0000] {pipeline.py:117} INFO - model: RandomForestClassifier, acc_mean: 0.7776, acc_std: 0.0032
[2023-03-19T23:19:15.654+0000] {pipeline.py:117} INFO - model: SVC, acc_mean: 0.7871, acc_std: 0.0042
[2023-03-19T23:19:15.656+0000] {pipeline.py:122} INFO - best model: SVC, accuracy: 0.7871
[2023-03-19T23:19:27.426+0000] {taskinstance.py:1775} ERROR - Task failed with exception
Traceback (most recent call last):
  File "/home/airflow/.local/lib/python3.7/site-packages/airflow/operators/python.py", line 175, in execute
    return_value = self.execute_callable()
  File "/home/airflow/.local/lib/python3.7/site-packages/airflow/operators/python.py", line 192, in execute_callable
    return self.python_callable(*self.op_args, **self.op_kwargs)
  File "/opt/airflow/modules/pipeline.py", line 127, in pipeline
    with open(model_filename, 'wb') as file:
PermissionError: [Errno 13] Permission denied: '/opt/airflow//data/models/cars_pipe_202303192319.pkl'
[2023-03-19T23:19:27.462+0000] {taskinstance.py:1326} INFO - Marking task as FAILED. dag_id=car_price_prediction, task_id=pipeline, execution_date=20221004T150000, start_date=20230319T231808, end_date=20230319T231927
[2023-03-19T23:19:27.498+0000] {standard_task_runner.py:105} ERROR - Failed to execute job 1315 for task pipeline ([Errno 13] Permission denied: '/opt/airflow//data/models/cars_pipe_202303192319.pkl'; 1579)
[2023-03-19T23:19:27.545+0000] {local_task_job.py:212} INFO - Task exited with return code 1
[2023-03-19T23:19:27.588+0000] {taskinstance.py:2585} INFO - 0 downstream tasks scheduled from follow-on schedule check
