[2023-03-19T23:21:13.942+0000] {taskinstance.py:1084} INFO - Dependencies all met for dep_context=non-requeueable deps ti=<TaskInstance: car_price_prediction.predict scheduled__2022-10-27T15:00:00+00:00 [queued]>
[2023-03-19T23:21:13.956+0000] {taskinstance.py:1084} INFO - Dependencies all met for dep_context=requeueable deps ti=<TaskInstance: car_price_prediction.predict scheduled__2022-10-27T15:00:00+00:00 [queued]>
[2023-03-19T23:21:13.957+0000] {taskinstance.py:1282} INFO - 
--------------------------------------------------------------------------------
[2023-03-19T23:21:13.957+0000] {taskinstance.py:1283} INFO - Starting attempt 2 of 2
[2023-03-19T23:21:13.958+0000] {taskinstance.py:1284} INFO - 
--------------------------------------------------------------------------------
[2023-03-19T23:21:13.977+0000] {taskinstance.py:1303} INFO - Executing <Task(PythonOperator): predict> on 2022-10-27 15:00:00+00:00
[2023-03-19T23:21:13.987+0000] {standard_task_runner.py:55} INFO - Started process 1907 to run task
[2023-03-19T23:21:13.991+0000] {standard_task_runner.py:82} INFO - Running: ['***', 'tasks', 'run', 'car_price_prediction', 'predict', 'scheduled__2022-10-27T15:00:00+00:00', '--job-id', '1377', '--raw', '--subdir', 'DAGS_FOLDER/hw_dag.py', '--cfg-path', '/tmp/tmpwj7by3ut']
[2023-03-19T23:21:13.992+0000] {standard_task_runner.py:83} INFO - Job 1377: Subtask predict
[2023-03-19T23:21:14.077+0000] {task_command.py:388} INFO - Running <TaskInstance: car_price_prediction.predict scheduled__2022-10-27T15:00:00+00:00 [running]> on host c71b34c643f7
[2023-03-19T23:21:14.174+0000] {taskinstance.py:1511} INFO - Exporting the following env vars:
AIRFLOW_CTX_DAG_OWNER=***
AIRFLOW_CTX_DAG_ID=car_price_prediction
AIRFLOW_CTX_TASK_ID=predict
AIRFLOW_CTX_EXECUTION_DATE=2022-10-27T15:00:00+00:00
AIRFLOW_CTX_TRY_NUMBER=2
AIRFLOW_CTX_DAG_RUN_ID=scheduled__2022-10-27T15:00:00+00:00
[2023-03-19T23:21:14.179+0000] {taskinstance.py:1775} ERROR - Task failed with exception
Traceback (most recent call last):
  File "/home/airflow/.local/lib/python3.7/site-packages/airflow/operators/python.py", line 175, in execute
    return_value = self.execute_callable()
  File "/home/airflow/.local/lib/python3.7/site-packages/airflow/operators/python.py", line 192, in execute_callable
    return self.python_callable(*self.op_args, **self.op_kwargs)
TypeError: predict() missing 1 required positional argument: 'data'
[2023-03-19T23:21:14.189+0000] {taskinstance.py:1326} INFO - Marking task as FAILED. dag_id=car_price_prediction, task_id=predict, execution_date=20221027T150000, start_date=20230319T232113, end_date=20230319T232114
[2023-03-19T23:21:14.203+0000] {standard_task_runner.py:105} ERROR - Failed to execute job 1377 for task predict (predict() missing 1 required positional argument: 'data'; 1907)
[2023-03-19T23:21:14.245+0000] {local_task_job.py:212} INFO - Task exited with return code 1
[2023-03-19T23:21:14.265+0000] {taskinstance.py:2585} INFO - 0 downstream tasks scheduled from follow-on schedule check
