[2023-03-19T23:14:02.458+0000] {taskinstance.py:1084} INFO - Dependencies all met for dep_context=non-requeueable deps ti=<TaskInstance: car_price_prediction.pipeline scheduled__2022-08-23T15:00:00+00:00 [queued]>
[2023-03-19T23:14:02.477+0000] {taskinstance.py:1084} INFO - Dependencies all met for dep_context=requeueable deps ti=<TaskInstance: car_price_prediction.pipeline scheduled__2022-08-23T15:00:00+00:00 [queued]>
[2023-03-19T23:14:02.486+0000] {taskinstance.py:1282} INFO - 
--------------------------------------------------------------------------------
[2023-03-19T23:14:02.487+0000] {taskinstance.py:1283} INFO - Starting attempt 2 of 2
[2023-03-19T23:14:02.488+0000] {taskinstance.py:1284} INFO - 
--------------------------------------------------------------------------------
[2023-03-19T23:14:02.516+0000] {taskinstance.py:1303} INFO - Executing <Task(PythonOperator): pipeline> on 2022-08-23 15:00:00+00:00
[2023-03-19T23:14:02.527+0000] {standard_task_runner.py:55} INFO - Started process 828 to run task
[2023-03-19T23:14:02.533+0000] {standard_task_runner.py:82} INFO - Running: ['***', 'tasks', 'run', 'car_price_prediction', 'pipeline', 'scheduled__2022-08-23T15:00:00+00:00', '--job-id', '1128', '--raw', '--subdir', 'DAGS_FOLDER/hw_dag.py', '--cfg-path', '/tmp/tmph_ziwob1']
[2023-03-19T23:14:02.535+0000] {standard_task_runner.py:83} INFO - Job 1128: Subtask pipeline
[2023-03-19T23:14:02.643+0000] {task_command.py:388} INFO - Running <TaskInstance: car_price_prediction.pipeline scheduled__2022-08-23T15:00:00+00:00 [running]> on host c71b34c643f7
[2023-03-19T23:14:02.757+0000] {taskinstance.py:1511} INFO - Exporting the following env vars:
AIRFLOW_CTX_DAG_OWNER=***
AIRFLOW_CTX_DAG_ID=car_price_prediction
AIRFLOW_CTX_TASK_ID=pipeline
AIRFLOW_CTX_EXECUTION_DATE=2022-08-23T15:00:00+00:00
AIRFLOW_CTX_TRY_NUMBER=2
AIRFLOW_CTX_DAG_RUN_ID=scheduled__2022-08-23T15:00:00+00:00
[2023-03-19T23:14:02.764+0000] {taskinstance.py:1775} ERROR - Task failed with exception
Traceback (most recent call last):
  File "/home/airflow/.local/lib/python3.7/site-packages/airflow/operators/python.py", line 175, in execute
    return_value = self.execute_callable()
  File "/home/airflow/.local/lib/python3.7/site-packages/airflow/operators/python.py", line 192, in execute_callable
    return self.python_callable(*self.op_args, **self.op_kwargs)
  File "/opt/airflow/modules/pipeline.py", line 71, in pipeline
    df = pd.read_csv(f'{path}/data/train/homework.csv')
  File "/home/airflow/.local/lib/python3.7/site-packages/pandas/util/_decorators.py", line 311, in wrapper
    return func(*args, **kwargs)
  File "/home/airflow/.local/lib/python3.7/site-packages/pandas/io/parsers/readers.py", line 586, in read_csv
    return _read(filepath_or_buffer, kwds)
  File "/home/airflow/.local/lib/python3.7/site-packages/pandas/io/parsers/readers.py", line 482, in _read
    parser = TextFileReader(filepath_or_buffer, **kwds)
  File "/home/airflow/.local/lib/python3.7/site-packages/pandas/io/parsers/readers.py", line 811, in __init__
    self._engine = self._make_engine(self.engine)
  File "/home/airflow/.local/lib/python3.7/site-packages/pandas/io/parsers/readers.py", line 1040, in _make_engine
    return mapping[engine](self.f, **self.options)  # type: ignore[call-arg]
  File "/home/airflow/.local/lib/python3.7/site-packages/pandas/io/parsers/c_parser_wrapper.py", line 51, in __init__
    self._open_handles(src, kwds)
  File "/home/airflow/.local/lib/python3.7/site-packages/pandas/io/parsers/base_parser.py", line 229, in _open_handles
    errors=kwds.get("encoding_errors", "strict"),
  File "/home/airflow/.local/lib/python3.7/site-packages/pandas/io/common.py", line 707, in get_handle
    newline="",
FileNotFoundError: [Errno 2] No such file or directory: '$PROJECT_PATH/data/train/homework.csv'
[2023-03-19T23:14:02.784+0000] {taskinstance.py:1326} INFO - Marking task as FAILED. dag_id=car_price_prediction, task_id=pipeline, execution_date=20220823T150000, start_date=20230319T231402, end_date=20230319T231402
[2023-03-19T23:14:02.805+0000] {standard_task_runner.py:105} ERROR - Failed to execute job 1128 for task pipeline ([Errno 2] No such file or directory: '$PROJECT_PATH/data/train/homework.csv'; 828)
[2023-03-19T23:14:02.825+0000] {local_task_job.py:212} INFO - Task exited with return code 1
[2023-03-19T23:14:02.853+0000] {taskinstance.py:2585} INFO - 0 downstream tasks scheduled from follow-on schedule check
