[2023-03-19T23:58:33.294+0000] {taskinstance.py:1084} INFO - Dependencies all met for dep_context=non-requeueable deps ti=<TaskInstance: car_price_prediction.pipeline manual__2023-03-19T23:57:30.004101+00:00 [queued]>
[2023-03-19T23:58:33.302+0000] {taskinstance.py:1084} INFO - Dependencies all met for dep_context=requeueable deps ti=<TaskInstance: car_price_prediction.pipeline manual__2023-03-19T23:57:30.004101+00:00 [queued]>
[2023-03-19T23:58:33.302+0000] {taskinstance.py:1282} INFO - 
--------------------------------------------------------------------------------
[2023-03-19T23:58:33.303+0000] {taskinstance.py:1283} INFO - Starting attempt 2 of 2
[2023-03-19T23:58:33.303+0000] {taskinstance.py:1284} INFO - 
--------------------------------------------------------------------------------
[2023-03-19T23:58:33.316+0000] {taskinstance.py:1303} INFO - Executing <Task(PythonOperator): pipeline> on 2023-03-19 23:57:30.004101+00:00
[2023-03-19T23:58:33.322+0000] {standard_task_runner.py:55} INFO - Started process 1378 to run task
[2023-03-19T23:58:33.324+0000] {standard_task_runner.py:82} INFO - Running: ['***', 'tasks', 'run', 'car_price_prediction', 'pipeline', 'manual__2023-03-19T23:57:30.004101+00:00', '--job-id', '1955', '--raw', '--subdir', 'DAGS_FOLDER/hw_dag.py', '--cfg-path', '/tmp/tmpq9nrb2st']
[2023-03-19T23:58:33.325+0000] {standard_task_runner.py:83} INFO - Job 1955: Subtask pipeline
[2023-03-19T23:58:33.378+0000] {task_command.py:388} INFO - Running <TaskInstance: car_price_prediction.pipeline manual__2023-03-19T23:57:30.004101+00:00 [running]> on host c71b34c643f7
[2023-03-19T23:58:33.431+0000] {taskinstance.py:1511} INFO - Exporting the following env vars:
AIRFLOW_CTX_DAG_OWNER=***
AIRFLOW_CTX_DAG_ID=car_price_prediction
AIRFLOW_CTX_TASK_ID=pipeline
AIRFLOW_CTX_EXECUTION_DATE=2023-03-19T23:57:30.004101+00:00
AIRFLOW_CTX_TRY_NUMBER=2
AIRFLOW_CTX_DAG_RUN_ID=manual__2023-03-19T23:57:30.004101+00:00
[2023-03-19T23:58:33.434+0000] {taskinstance.py:1775} ERROR - Task failed with exception
Traceback (most recent call last):
  File "/home/airflow/.local/lib/python3.7/site-packages/airflow/operators/python.py", line 175, in execute
    return_value = self.execute_callable()
  File "/home/airflow/.local/lib/python3.7/site-packages/airflow/operators/python.py", line 192, in execute_callable
    return self.python_callable(*self.op_args, **self.op_kwargs)
  File "/opt/airflow/modules/pipeline.py", line 71, in pipeline
    df = pd.read_csv(f'{path}/data/train/homework.csv')
  File "/home/airflow/.local/lib/python3.7/site-packages/pandas/util/_decorators.py", line 311, in wrapper
    return func(*args, **kwargs)
  File "/home/airflow/.local/lib/python3.7/site-packages/pandas/io/parsers/readers.py", line 586, in read_csv
    return _read(filepath_or_buffer, kwds)
  File "/home/airflow/.local/lib/python3.7/site-packages/pandas/io/parsers/readers.py", line 482, in _read
    parser = TextFileReader(filepath_or_buffer, **kwds)
  File "/home/airflow/.local/lib/python3.7/site-packages/pandas/io/parsers/readers.py", line 811, in __init__
    self._engine = self._make_engine(self.engine)
  File "/home/airflow/.local/lib/python3.7/site-packages/pandas/io/parsers/readers.py", line 1040, in _make_engine
    return mapping[engine](self.f, **self.options)  # type: ignore[call-arg]
  File "/home/airflow/.local/lib/python3.7/site-packages/pandas/io/parsers/c_parser_wrapper.py", line 51, in __init__
    self._open_handles(src, kwds)
  File "/home/airflow/.local/lib/python3.7/site-packages/pandas/io/parsers/base_parser.py", line 229, in _open_handles
    errors=kwds.get("encoding_errors", "strict"),
  File "/home/airflow/.local/lib/python3.7/site-packages/pandas/io/common.py", line 707, in get_handle
    newline="",
FileNotFoundError: [Errno 2] No such file or directory: '/home/airflow/airflow/data/train/homework.csv'
[2023-03-19T23:58:33.445+0000] {taskinstance.py:1326} INFO - Marking task as FAILED. dag_id=car_price_prediction, task_id=pipeline, execution_date=20230319T235730, start_date=20230319T235833, end_date=20230319T235833
[2023-03-19T23:58:33.455+0000] {standard_task_runner.py:105} ERROR - Failed to execute job 1955 for task pipeline ([Errno 2] No such file or directory: '/home/airflow/airflow/data/train/homework.csv'; 1378)
[2023-03-19T23:58:33.497+0000] {local_task_job.py:212} INFO - Task exited with return code 1
[2023-03-19T23:58:33.510+0000] {taskinstance.py:2585} INFO - 0 downstream tasks scheduled from follow-on schedule check
