[2023-03-17T11:13:16.049+0000] {taskinstance.py:1084} INFO - Dependencies all met for dep_context=non-requeueable deps ti=<TaskInstance: titanic_pivot.first_task scheduled__2022-10-22T15:00:00+00:00 [queued]>
[2023-03-17T11:13:16.061+0000] {taskinstance.py:1084} INFO - Dependencies all met for dep_context=requeueable deps ti=<TaskInstance: titanic_pivot.first_task scheduled__2022-10-22T15:00:00+00:00 [queued]>
[2023-03-17T11:13:16.062+0000] {taskinstance.py:1282} INFO - 
--------------------------------------------------------------------------------
[2023-03-17T11:13:16.062+0000] {taskinstance.py:1283} INFO - Starting attempt 1 of 2
[2023-03-17T11:13:16.063+0000] {taskinstance.py:1284} INFO - 
--------------------------------------------------------------------------------
[2023-03-17T11:13:16.079+0000] {taskinstance.py:1303} INFO - Executing <Task(BashOperator): first_task> on 2022-10-22 15:00:00+00:00
[2023-03-17T11:13:16.086+0000] {standard_task_runner.py:55} INFO - Started process 3823 to run task
[2023-03-17T11:13:16.090+0000] {standard_task_runner.py:82} INFO - Running: ['***', 'tasks', 'run', 'titanic_pivot', 'first_task', 'scheduled__2022-10-22T15:00:00+00:00', '--job-id', '403', '--raw', '--subdir', 'DAGS_FOLDER/first_dag.py', '--cfg-path', '/tmp/tmpxjzha10d']
[2023-03-17T11:13:16.091+0000] {standard_task_runner.py:83} INFO - Job 403: Subtask first_task
[2023-03-17T11:13:16.176+0000] {task_command.py:388} INFO - Running <TaskInstance: titanic_pivot.first_task scheduled__2022-10-22T15:00:00+00:00 [running]> on host 5a45e444f389
[2023-03-17T11:13:16.275+0000] {taskinstance.py:1511} INFO - Exporting the following env vars:
AIRFLOW_CTX_DAG_OWNER=***
AIRFLOW_CTX_DAG_ID=titanic_pivot
AIRFLOW_CTX_TASK_ID=first_task
AIRFLOW_CTX_EXECUTION_DATE=2022-10-22T15:00:00+00:00
AIRFLOW_CTX_TRY_NUMBER=1
AIRFLOW_CTX_DAG_RUN_ID=scheduled__2022-10-22T15:00:00+00:00
[2023-03-17T11:13:16.279+0000] {subprocess.py:63} INFO - Tmp dir root location: 
 /tmp
[2023-03-17T11:13:16.280+0000] {subprocess.py:75} INFO - Running command: ['/bin/bash', '-c', 'echo "Here we start!"']
[2023-03-17T11:13:16.294+0000] {subprocess.py:86} INFO - Output:
[2023-03-17T11:13:16.296+0000] {subprocess.py:93} INFO - Here we start!
[2023-03-17T11:13:16.296+0000] {subprocess.py:97} INFO - Command exited with return code 0
[2023-03-17T11:13:16.329+0000] {taskinstance.py:1326} INFO - Marking task as SUCCESS. dag_id=titanic_pivot, task_id=first_task, execution_date=20221022T150000, start_date=20230317T111316, end_date=20230317T111316
[2023-03-17T11:13:16.382+0000] {local_task_job.py:212} INFO - Task exited with return code 0
[2023-03-17T11:13:16.546+0000] {taskinstance.py:2585} INFO - 0 downstream tasks scheduled from follow-on schedule check
