[2023-03-17T11:12:14.147+0000] {taskinstance.py:1084} INFO - Dependencies all met for dep_context=non-requeueable deps ti=<TaskInstance: titanic_pivot.download_titanic_dataset scheduled__2022-07-30T15:00:00+00:00 [queued]>
[2023-03-17T11:12:14.156+0000] {taskinstance.py:1084} INFO - Dependencies all met for dep_context=requeueable deps ti=<TaskInstance: titanic_pivot.download_titanic_dataset scheduled__2022-07-30T15:00:00+00:00 [queued]>
[2023-03-17T11:12:14.157+0000] {taskinstance.py:1282} INFO - 
--------------------------------------------------------------------------------
[2023-03-17T11:12:14.157+0000] {taskinstance.py:1283} INFO - Starting attempt 1 of 2
[2023-03-17T11:12:14.157+0000] {taskinstance.py:1284} INFO - 
--------------------------------------------------------------------------------
[2023-03-17T11:12:14.171+0000] {taskinstance.py:1303} INFO - Executing <Task(PythonOperator): download_titanic_dataset> on 2022-07-30 15:00:00+00:00
[2023-03-17T11:12:14.177+0000] {standard_task_runner.py:55} INFO - Started process 2960 to run task
[2023-03-17T11:12:14.180+0000] {standard_task_runner.py:82} INFO - Running: ['***', 'tasks', 'run', 'titanic_pivot', 'download_titanic_dataset', 'scheduled__2022-07-30T15:00:00+00:00', '--job-id', '162', '--raw', '--subdir', 'DAGS_FOLDER/first_dag.py', '--cfg-path', '/tmp/tmp53af9hiy']
[2023-03-17T11:12:14.181+0000] {standard_task_runner.py:83} INFO - Job 162: Subtask download_titanic_dataset
[2023-03-17T11:12:14.241+0000] {task_command.py:388} INFO - Running <TaskInstance: titanic_pivot.download_titanic_dataset scheduled__2022-07-30T15:00:00+00:00 [running]> on host 5a45e444f389
[2023-03-17T11:12:14.303+0000] {taskinstance.py:1511} INFO - Exporting the following env vars:
AIRFLOW_CTX_DAG_OWNER=***
AIRFLOW_CTX_DAG_ID=titanic_pivot
AIRFLOW_CTX_TASK_ID=download_titanic_dataset
AIRFLOW_CTX_EXECUTION_DATE=2022-07-30T15:00:00+00:00
AIRFLOW_CTX_TRY_NUMBER=1
AIRFLOW_CTX_DAG_RUN_ID=scheduled__2022-07-30T15:00:00+00:00
[2023-03-17T11:12:16.459+0000] {python.py:177} INFO - Done. Returned value was: None
[2023-03-17T11:12:16.468+0000] {taskinstance.py:1326} INFO - Marking task as SUCCESS. dag_id=titanic_pivot, task_id=download_titanic_dataset, execution_date=20220730T150000, start_date=20230317T111214, end_date=20230317T111216
[2023-03-17T11:12:16.521+0000] {local_task_job.py:212} INFO - Task exited with return code 0
[2023-03-17T11:12:16.540+0000] {taskinstance.py:2585} INFO - 1 downstream tasks scheduled from follow-on schedule check
