[2023-03-17T11:13:32.572+0000] {taskinstance.py:1084} INFO - Dependencies all met for dep_context=non-requeueable deps ti=<TaskInstance: titanic_pivot.pivot_dataset scheduled__2022-11-09T15:00:00+00:00 [queued]>
[2023-03-17T11:13:32.579+0000] {taskinstance.py:1084} INFO - Dependencies all met for dep_context=requeueable deps ti=<TaskInstance: titanic_pivot.pivot_dataset scheduled__2022-11-09T15:00:00+00:00 [queued]>
[2023-03-17T11:13:32.579+0000] {taskinstance.py:1282} INFO - 
--------------------------------------------------------------------------------
[2023-03-17T11:13:32.580+0000] {taskinstance.py:1283} INFO - Starting attempt 1 of 2
[2023-03-17T11:13:32.581+0000] {taskinstance.py:1284} INFO - 
--------------------------------------------------------------------------------
[2023-03-17T11:13:32.592+0000] {taskinstance.py:1303} INFO - Executing <Task(PythonOperator): pivot_dataset> on 2022-11-09 15:00:00+00:00
[2023-03-17T11:13:32.597+0000] {standard_task_runner.py:55} INFO - Started process 4070 to run task
[2023-03-17T11:13:32.600+0000] {standard_task_runner.py:82} INFO - Running: ['***', 'tasks', 'run', 'titanic_pivot', 'pivot_dataset', 'scheduled__2022-11-09T15:00:00+00:00', '--job-id', '471', '--raw', '--subdir', 'DAGS_FOLDER/first_dag.py', '--cfg-path', '/tmp/tmp6mecmspe']
[2023-03-17T11:13:32.600+0000] {standard_task_runner.py:83} INFO - Job 471: Subtask pivot_dataset
[2023-03-17T11:13:32.651+0000] {task_command.py:388} INFO - Running <TaskInstance: titanic_pivot.pivot_dataset scheduled__2022-11-09T15:00:00+00:00 [running]> on host 5a45e444f389
[2023-03-17T11:13:32.706+0000] {taskinstance.py:1511} INFO - Exporting the following env vars:
AIRFLOW_CTX_DAG_OWNER=***
AIRFLOW_CTX_DAG_ID=titanic_pivot
AIRFLOW_CTX_TASK_ID=pivot_dataset
AIRFLOW_CTX_EXECUTION_DATE=2022-11-09T15:00:00+00:00
AIRFLOW_CTX_TRY_NUMBER=1
AIRFLOW_CTX_DAG_RUN_ID=scheduled__2022-11-09T15:00:00+00:00
[2023-03-17T11:13:32.725+0000] {python.py:177} INFO - Done. Returned value was: None
[2023-03-17T11:13:32.732+0000] {taskinstance.py:1326} INFO - Marking task as SUCCESS. dag_id=titanic_pivot, task_id=pivot_dataset, execution_date=20221109T150000, start_date=20230317T111332, end_date=20230317T111332
[2023-03-17T11:13:32.772+0000] {local_task_job.py:212} INFO - Task exited with return code 0
[2023-03-17T11:13:32.785+0000] {taskinstance.py:2585} INFO - 0 downstream tasks scheduled from follow-on schedule check
