[2023-03-17T11:11:47.259+0000] {taskinstance.py:1084} INFO - Dependencies all met for dep_context=non-requeueable deps ti=<TaskInstance: titanic_pivot.pivot_dataset scheduled__2022-06-19T15:00:00+00:00 [queued]>
[2023-03-17T11:11:47.279+0000] {taskinstance.py:1084} INFO - Dependencies all met for dep_context=requeueable deps ti=<TaskInstance: titanic_pivot.pivot_dataset scheduled__2022-06-19T15:00:00+00:00 [queued]>
[2023-03-17T11:11:47.280+0000] {taskinstance.py:1282} INFO - 
--------------------------------------------------------------------------------
[2023-03-17T11:11:47.280+0000] {taskinstance.py:1283} INFO - Starting attempt 1 of 2
[2023-03-17T11:11:47.281+0000] {taskinstance.py:1284} INFO - 
--------------------------------------------------------------------------------
[2023-03-17T11:11:47.297+0000] {taskinstance.py:1303} INFO - Executing <Task(PythonOperator): pivot_dataset> on 2022-06-19 15:00:00+00:00
[2023-03-17T11:11:47.306+0000] {standard_task_runner.py:55} INFO - Started process 2583 to run task
[2023-03-17T11:11:47.310+0000] {standard_task_runner.py:82} INFO - Running: ['***', 'tasks', 'run', 'titanic_pivot', 'pivot_dataset', 'scheduled__2022-06-19T15:00:00+00:00', '--job-id', '57', '--raw', '--subdir', 'DAGS_FOLDER/first_dag.py', '--cfg-path', '/tmp/tmp0yv0q4i2']
[2023-03-17T11:11:47.311+0000] {standard_task_runner.py:83} INFO - Job 57: Subtask pivot_dataset
[2023-03-17T11:11:47.385+0000] {task_command.py:388} INFO - Running <TaskInstance: titanic_pivot.pivot_dataset scheduled__2022-06-19T15:00:00+00:00 [running]> on host 5a45e444f389
[2023-03-17T11:11:47.479+0000] {taskinstance.py:1511} INFO - Exporting the following env vars:
AIRFLOW_CTX_DAG_OWNER=***
AIRFLOW_CTX_DAG_ID=titanic_pivot
AIRFLOW_CTX_TASK_ID=pivot_dataset
AIRFLOW_CTX_EXECUTION_DATE=2022-06-19T15:00:00+00:00
AIRFLOW_CTX_TRY_NUMBER=1
AIRFLOW_CTX_DAG_RUN_ID=scheduled__2022-06-19T15:00:00+00:00
[2023-03-17T11:11:47.503+0000] {python.py:177} INFO - Done. Returned value was: None
[2023-03-17T11:11:47.515+0000] {taskinstance.py:1326} INFO - Marking task as SUCCESS. dag_id=titanic_pivot, task_id=pivot_dataset, execution_date=20220619T150000, start_date=20230317T111147, end_date=20230317T111147
[2023-03-17T11:11:47.562+0000] {local_task_job.py:212} INFO - Task exited with return code 0
[2023-03-17T11:11:47.579+0000] {taskinstance.py:2585} INFO - 0 downstream tasks scheduled from follow-on schedule check
