[2023-03-19T23:51:11.826+0000] {taskinstance.py:1084} INFO - Dependencies all met for dep_context=non-requeueable deps ti=<TaskInstance: car_price_prediction.predict scheduled__2023-02-26T15:00:00+00:00 [queued]>
[2023-03-19T23:51:11.833+0000] {taskinstance.py:1084} INFO - Dependencies all met for dep_context=requeueable deps ti=<TaskInstance: car_price_prediction.predict scheduled__2023-02-26T15:00:00+00:00 [queued]>
[2023-03-19T23:51:11.834+0000] {taskinstance.py:1282} INFO - 
--------------------------------------------------------------------------------
[2023-03-19T23:51:11.834+0000] {taskinstance.py:1283} INFO - Starting attempt 2 of 2
[2023-03-19T23:51:11.835+0000] {taskinstance.py:1284} INFO - 
--------------------------------------------------------------------------------
[2023-03-19T23:51:11.845+0000] {taskinstance.py:1303} INFO - Executing <Task(PythonOperator): predict> on 2023-02-26 15:00:00+00:00
[2023-03-19T23:51:11.850+0000] {standard_task_runner.py:55} INFO - Started process 741 to run task
[2023-03-19T23:51:11.854+0000] {standard_task_runner.py:82} INFO - Running: ['***', 'tasks', 'run', 'car_price_prediction', 'predict', 'scheduled__2023-02-26T15:00:00+00:00', '--job-id', '1875', '--raw', '--subdir', 'DAGS_FOLDER/hw_dag.py', '--cfg-path', '/tmp/tmphic6zosj']
[2023-03-19T23:51:11.855+0000] {standard_task_runner.py:83} INFO - Job 1875: Subtask predict
[2023-03-19T23:51:11.905+0000] {task_command.py:388} INFO - Running <TaskInstance: car_price_prediction.predict scheduled__2023-02-26T15:00:00+00:00 [running]> on host c71b34c643f7
[2023-03-19T23:51:11.959+0000] {taskinstance.py:1511} INFO - Exporting the following env vars:
AIRFLOW_CTX_DAG_OWNER=***
AIRFLOW_CTX_DAG_ID=car_price_prediction
AIRFLOW_CTX_TASK_ID=predict
AIRFLOW_CTX_EXECUTION_DATE=2023-02-26T15:00:00+00:00
AIRFLOW_CTX_TRY_NUMBER=2
AIRFLOW_CTX_DAG_RUN_ID=scheduled__2023-02-26T15:00:00+00:00
[2023-03-19T23:51:11.973+0000] {taskinstance.py:1775} ERROR - Task failed with exception
Traceback (most recent call last):
  File "/home/airflow/.local/lib/python3.7/site-packages/airflow/operators/python.py", line 175, in execute
    return_value = self.execute_callable()
  File "/home/airflow/.local/lib/python3.7/site-packages/airflow/operators/python.py", line 192, in execute_callable
    return self.python_callable(*self.op_args, **self.op_kwargs)
  File "/opt/airflow/modules/predict.py", line 32, in main
    list_of_predicts.append(predict_on_data(df))
  File "/opt/airflow/modules/predict.py", line 19, in predict_on_data
    model = dill.load(file)
  File "/home/airflow/.local/lib/python3.7/site-packages/dill/_dill.py", line 270, in load
    return Unpickler(file, ignore=ignore, **kwds).load()
  File "/home/airflow/.local/lib/python3.7/site-packages/dill/_dill.py", line 472, in load
    obj = StockUnpickler.load(self)
  File "/home/airflow/.local/lib/python3.7/site-packages/dill/_dill.py", line 462, in find_class
    return StockUnpickler.find_class(self, module, name)
AttributeError: Can't get attribute '_create_code' on <module 'dill._dill' from '/home/***/.local/lib/python3.7/site-packages/dill/_dill.py'>
[2023-03-19T23:51:11.983+0000] {taskinstance.py:1326} INFO - Marking task as FAILED. dag_id=car_price_prediction, task_id=predict, execution_date=20230226T150000, start_date=20230319T235111, end_date=20230319T235111
[2023-03-19T23:51:11.992+0000] {standard_task_runner.py:105} ERROR - Failed to execute job 1875 for task predict (Can't get attribute '_create_code' on <module 'dill._dill' from '/home/***/.local/lib/python3.7/site-packages/dill/_dill.py'>; 741)
[2023-03-19T23:51:12.025+0000] {local_task_job.py:212} INFO - Task exited with return code 1
[2023-03-19T23:51:12.039+0000] {taskinstance.py:2585} INFO - 0 downstream tasks scheduled from follow-on schedule check
