[2023-03-17T11:13:38.306+0000] {taskinstance.py:1084} INFO - Dependencies all met for dep_context=non-requeueable deps ti=<TaskInstance: titanic_pivot.first_task scheduled__2022-11-22T15:00:00+00:00 [queued]>
[2023-03-17T11:13:38.315+0000] {taskinstance.py:1084} INFO - Dependencies all met for dep_context=requeueable deps ti=<TaskInstance: titanic_pivot.first_task scheduled__2022-11-22T15:00:00+00:00 [queued]>
[2023-03-17T11:13:38.315+0000] {taskinstance.py:1282} INFO - 
--------------------------------------------------------------------------------
[2023-03-17T11:13:38.316+0000] {taskinstance.py:1283} INFO - Starting attempt 1 of 2
[2023-03-17T11:13:38.316+0000] {taskinstance.py:1284} INFO - 
--------------------------------------------------------------------------------
[2023-03-17T11:13:38.330+0000] {taskinstance.py:1303} INFO - Executing <Task(BashOperator): first_task> on 2022-11-22 15:00:00+00:00
[2023-03-17T11:13:38.335+0000] {standard_task_runner.py:55} INFO - Started process 4156 to run task
[2023-03-17T11:13:38.338+0000] {standard_task_runner.py:82} INFO - Running: ['***', 'tasks', 'run', 'titanic_pivot', 'first_task', 'scheduled__2022-11-22T15:00:00+00:00', '--job-id', '495', '--raw', '--subdir', 'DAGS_FOLDER/first_dag.py', '--cfg-path', '/tmp/tmp_xlll48j']
[2023-03-17T11:13:38.338+0000] {standard_task_runner.py:83} INFO - Job 495: Subtask first_task
[2023-03-17T11:13:38.411+0000] {task_command.py:388} INFO - Running <TaskInstance: titanic_pivot.first_task scheduled__2022-11-22T15:00:00+00:00 [running]> on host 5a45e444f389
[2023-03-17T11:13:38.481+0000] {taskinstance.py:1511} INFO - Exporting the following env vars:
AIRFLOW_CTX_DAG_OWNER=***
AIRFLOW_CTX_DAG_ID=titanic_pivot
AIRFLOW_CTX_TASK_ID=first_task
AIRFLOW_CTX_EXECUTION_DATE=2022-11-22T15:00:00+00:00
AIRFLOW_CTX_TRY_NUMBER=1
AIRFLOW_CTX_DAG_RUN_ID=scheduled__2022-11-22T15:00:00+00:00
[2023-03-17T11:13:38.484+0000] {subprocess.py:63} INFO - Tmp dir root location: 
 /tmp
[2023-03-17T11:13:38.485+0000] {subprocess.py:75} INFO - Running command: ['/bin/bash', '-c', 'echo "Here we start!"']
[2023-03-17T11:13:38.496+0000] {subprocess.py:86} INFO - Output:
[2023-03-17T11:13:38.497+0000] {subprocess.py:93} INFO - Here we start!
[2023-03-17T11:13:38.498+0000] {subprocess.py:97} INFO - Command exited with return code 0
[2023-03-17T11:13:38.523+0000] {taskinstance.py:1326} INFO - Marking task as SUCCESS. dag_id=titanic_pivot, task_id=first_task, execution_date=20221122T150000, start_date=20230317T111338, end_date=20230317T111338
[2023-03-17T11:13:38.550+0000] {local_task_job.py:212} INFO - Task exited with return code 0
[2023-03-17T11:13:38.606+0000] {taskinstance.py:2585} INFO - 1 downstream tasks scheduled from follow-on schedule check
