[2023-03-19T23:51:50.910+0000] {taskinstance.py:1084} INFO - Dependencies all met for dep_context=non-requeueable deps ti=<TaskInstance: car_price_prediction.pipeline scheduled__2023-02-27T15:00:00+00:00 [queued]>
[2023-03-19T23:51:50.927+0000] {taskinstance.py:1084} INFO - Dependencies all met for dep_context=requeueable deps ti=<TaskInstance: car_price_prediction.pipeline scheduled__2023-02-27T15:00:00+00:00 [queued]>
[2023-03-19T23:51:50.928+0000] {taskinstance.py:1282} INFO - 
--------------------------------------------------------------------------------
[2023-03-19T23:51:50.929+0000] {taskinstance.py:1283} INFO - Starting attempt 2 of 2
[2023-03-19T23:51:50.930+0000] {taskinstance.py:1284} INFO - 
--------------------------------------------------------------------------------
[2023-03-19T23:51:50.953+0000] {taskinstance.py:1303} INFO - Executing <Task(PythonOperator): pipeline> on 2023-02-27 15:00:00+00:00
[2023-03-19T23:51:50.963+0000] {standard_task_runner.py:55} INFO - Started process 817 to run task
[2023-03-19T23:51:50.969+0000] {standard_task_runner.py:82} INFO - Running: ['***', 'tasks', 'run', 'car_price_prediction', 'pipeline', 'scheduled__2023-02-27T15:00:00+00:00', '--job-id', '1889', '--raw', '--subdir', 'DAGS_FOLDER/hw_dag.py', '--cfg-path', '/tmp/tmp9bm1s7a7']
[2023-03-19T23:51:50.970+0000] {standard_task_runner.py:83} INFO - Job 1889: Subtask pipeline
[2023-03-19T23:51:51.056+0000] {task_command.py:388} INFO - Running <TaskInstance: car_price_prediction.pipeline scheduled__2023-02-27T15:00:00+00:00 [running]> on host c71b34c643f7
[2023-03-19T23:51:51.158+0000] {taskinstance.py:1511} INFO - Exporting the following env vars:
AIRFLOW_CTX_DAG_OWNER=***
AIRFLOW_CTX_DAG_ID=car_price_prediction
AIRFLOW_CTX_TASK_ID=pipeline
AIRFLOW_CTX_EXECUTION_DATE=2023-02-27T15:00:00+00:00
AIRFLOW_CTX_TRY_NUMBER=2
AIRFLOW_CTX_DAG_RUN_ID=scheduled__2023-02-27T15:00:00+00:00
[2023-03-19T23:51:52.598+0000] {pipeline.py:117} INFO - model: LogisticRegression, acc_mean: 0.7591, acc_std: 0.0075
[2023-03-19T23:52:15.227+0000] {pipeline.py:117} INFO - model: RandomForestClassifier, acc_mean: 0.7781, acc_std: 0.0041
[2023-03-19T23:52:33.621+0000] {pipeline.py:117} INFO - model: SVC, acc_mean: 0.7871, acc_std: 0.0042
[2023-03-19T23:52:33.621+0000] {pipeline.py:122} INFO - best model: SVC, accuracy: 0.7871
[2023-03-19T23:52:37.626+0000] {taskinstance.py:1775} ERROR - Task failed with exception
Traceback (most recent call last):
  File "/home/airflow/.local/lib/python3.7/site-packages/airflow/operators/python.py", line 175, in execute
    return_value = self.execute_callable()
  File "/home/airflow/.local/lib/python3.7/site-packages/airflow/operators/python.py", line 192, in execute_callable
    return self.python_callable(*self.op_args, **self.op_kwargs)
  File "/opt/airflow/modules/pipeline.py", line 127, in pipeline
    with open(model_filename, 'wb') as file:
PermissionError: [Errno 13] Permission denied: '/opt/airflow/data/models/cars_pipe_202303192352.pkl'
[2023-03-19T23:52:37.644+0000] {taskinstance.py:1326} INFO - Marking task as FAILED. dag_id=car_price_prediction, task_id=pipeline, execution_date=20230227T150000, start_date=20230319T235150, end_date=20230319T235237
[2023-03-19T23:52:37.663+0000] {standard_task_runner.py:105} ERROR - Failed to execute job 1889 for task pipeline ([Errno 13] Permission denied: '/opt/airflow/data/models/cars_pipe_202303192352.pkl'; 817)
[2023-03-19T23:52:37.686+0000] {local_task_job.py:212} INFO - Task exited with return code 1
[2023-03-19T23:52:37.711+0000] {taskinstance.py:2585} INFO - 0 downstream tasks scheduled from follow-on schedule check
