[2023-03-17T11:14:03.551+0000] {taskinstance.py:1084} INFO - Dependencies all met for dep_context=non-requeueable deps ti=<TaskInstance: titanic_pivot.pivot_dataset scheduled__2022-12-15T15:00:00+00:00 [queued]>
[2023-03-17T11:14:03.559+0000] {taskinstance.py:1084} INFO - Dependencies all met for dep_context=requeueable deps ti=<TaskInstance: titanic_pivot.pivot_dataset scheduled__2022-12-15T15:00:00+00:00 [queued]>
[2023-03-17T11:14:03.560+0000] {taskinstance.py:1282} INFO - 
--------------------------------------------------------------------------------
[2023-03-17T11:14:03.560+0000] {taskinstance.py:1283} INFO - Starting attempt 1 of 2
[2023-03-17T11:14:03.560+0000] {taskinstance.py:1284} INFO - 
--------------------------------------------------------------------------------
[2023-03-17T11:14:03.572+0000] {taskinstance.py:1303} INFO - Executing <Task(PythonOperator): pivot_dataset> on 2022-12-15 15:00:00+00:00
[2023-03-17T11:14:03.577+0000] {standard_task_runner.py:55} INFO - Started process 4511 to run task
[2023-03-17T11:14:03.580+0000] {standard_task_runner.py:82} INFO - Running: ['***', 'tasks', 'run', 'titanic_pivot', 'pivot_dataset', 'scheduled__2022-12-15T15:00:00+00:00', '--job-id', '595', '--raw', '--subdir', 'DAGS_FOLDER/first_dag.py', '--cfg-path', '/tmp/tmpp91lfom1']
[2023-03-17T11:14:03.581+0000] {standard_task_runner.py:83} INFO - Job 595: Subtask pivot_dataset
[2023-03-17T11:14:03.632+0000] {task_command.py:388} INFO - Running <TaskInstance: titanic_pivot.pivot_dataset scheduled__2022-12-15T15:00:00+00:00 [running]> on host 5a45e444f389
[2023-03-17T11:14:03.685+0000] {taskinstance.py:1511} INFO - Exporting the following env vars:
AIRFLOW_CTX_DAG_OWNER=***
AIRFLOW_CTX_DAG_ID=titanic_pivot
AIRFLOW_CTX_TASK_ID=pivot_dataset
AIRFLOW_CTX_EXECUTION_DATE=2022-12-15T15:00:00+00:00
AIRFLOW_CTX_TRY_NUMBER=1
AIRFLOW_CTX_DAG_RUN_ID=scheduled__2022-12-15T15:00:00+00:00
[2023-03-17T11:14:03.702+0000] {python.py:177} INFO - Done. Returned value was: None
[2023-03-17T11:14:03.710+0000] {taskinstance.py:1326} INFO - Marking task as SUCCESS. dag_id=titanic_pivot, task_id=pivot_dataset, execution_date=20221215T150000, start_date=20230317T111403, end_date=20230317T111403
[2023-03-17T11:14:03.752+0000] {local_task_job.py:212} INFO - Task exited with return code 0
[2023-03-17T11:14:03.767+0000] {taskinstance.py:2585} INFO - 0 downstream tasks scheduled from follow-on schedule check
